{
  "private_key_id": "1f0817bde256dd23475c4f210e0212d96f85fe79",
  "private_key": "-----BEGIN PRIVATE KEY-----\nMIICeAIBADANBgkqhkiG9w0BAQEFAASCAmIwggJeAgEAAoGBAMHHrZFomHi+dTTN\n7wyQe7a0a2QQQh/Si6jnZtyRjSAFp2DS6v97u5jt74BSbo0x+BYgEMcjut08bqvt\nuI4K21JELdm2GQg7UMRIAf9zqrQAV3AsHhEI/9QRveczEUlAgT7XFiR7yz1z2tap\nzz0C/3rehVpfjY6KpEsfno4ebLlnAgMBAAECgYEAtlBCOYs54Gf4Z8zUenK5ImVO\noF83hy8U3L2RpjV+nEEVf+AQ3nuwPSqm6Ykkn80ChvZ2MpWoKpu/2BwZRfJq8q5H\norGbDvKVg/ElSVDQW70w5hcY0aLTrlcQQAn2b1kEBR4AWO51aNDy8w9RW6LSvWov\nzbzrL5K2hCw1bRI148kCQQD61bKOLCqBj/XxiZJkcK0wi1hJSW3boGABnx4s0M9m\nYNbxVeAdSAMg4NAUBxGteij3JLpXQnzO8mdwQATZ13vjAkEAxcU1zYC1KdB01D3y\n/oEZok11zjNK9Kcjid8OzME8j3D2x51ndAnja36R5U8nrO7BcJzD5srJd1ix/yL5\n+/vLrQJBAL18WZqVOrcNbZm9d11w0SRu347dbaQQDvaqoTzxsPuCBF3jpZ35HIPl\n0MqQXIZUVkX89NeeXnJnJETj18ZIxkkCQHTxB79cO8Nd37cgam7TJ7Uw2Ff1PH0t\n13XOz5GDMawfv8yI5oNW1YLadKqDA5LeGsPb7nqprjdD2vxiUi8N1IECQQCLYJMy\nPyPFGJMTXGLpd6aVdUCgeyCfv5ZH4jUBeeA5RMFOMF8ePS1GEpOIk/EEqhSsBTT9\nF1S3DbQkNoWbHey9\n-----END PRIVATE KEY-----\n",
  "client_email": "397907569888-h01qb34o64n8eqlf7ct67qiscq4eetvr@developer.gserviceaccount.com",
  "client_id": "397907569888-h01qb34o64n8eqlf7ct67qiscq4eetvr.apps.googleusercontent.com",
  "type": "service_account"
}